<?xml version="1.0" encoding="utf-8"?>
<!-- Generator: Adobe Illustrator 19.2.1, SVG Export Plug-In . SVG Version: 6.00 Build 0)  -->
<svg version="1.1" id="Layer_1" xmlns="http://www.w3.org/2000/svg" xmlns:xlink="http://www.w3.org/1999/xlink" x="0px" y="0px"
	 width="238px" height="60px" viewBox="0 0 238 60" style="enable-background:new 0 0 238 60;" xml:space="preserve">
<style type="text/css">
	.st0{fill:#49166D;}
</style>
<g>
	<path class="st0" d="M14,14.8h-0.8L13,12.6h0c-0.8,1.7-2.4,2.5-4.2,2.5c-3.8,0-5.7-3-5.7-6.3s1.9-6.3,5.7-6.3c2.5,0,4.6,1.4,5.1,4
		h-1.2c-0.2-1.4-1.6-3-3.9-3c-3.2,0-4.6,2.7-4.6,5.3s1.4,5.3,4.6,5.3c2.7,0,4.2-1.9,4.2-4.5H8.8v-1H14V14.8z"/>
	<path class="st0" d="M16.6,10.7c0,1.6,0.8,3.5,2.9,3.5c1.6,0,2.4-0.9,2.8-2.2h1.1c-0.5,2-1.6,3.1-3.8,3.1c-2.8,0-4-2.1-4-4.6
		c0-2.3,1.2-4.6,4-4.6c2.8,0,3.9,2.5,3.9,4.9H16.6z M22.3,9.8c-0.1-1.6-1.1-3.1-2.8-3.1c-1.8,0-2.7,1.5-2.9,3.1H22.3z"/>
	<path class="st0" d="M26.5,6.1h1.8V7h-1.8v5.9c0,0.7,0.1,1.1,0.9,1.2c0.3,0,0.6,0,0.9-0.1v0.9c-0.3,0-0.6,0-1,0
		c-1.4,0-1.9-0.5-1.9-2V7h-1.5V6.1h1.5V3.4h1.1V6.1z"/>
	<path class="st0" d="M36.3,6.1H38V7h-1.8v5.9c0,0.7,0.1,1.1,0.9,1.2c0.3,0,0.6,0,0.9-0.1v0.9c-0.3,0-0.6,0-1,0
		c-1.4,0-1.9-0.5-1.9-2V7h-1.5V6.1h1.5V3.4h1.1V6.1z"/>
	<path class="st0" d="M39.6,2.7h1.1v4.9h0c0.4-1.1,1.6-1.8,2.8-1.8c2.5,0,3.2,1.3,3.2,3.4v5.6h-1.1V9.4c0-1.5-0.5-2.7-2.2-2.7
		c-1.7,0-2.7,1.3-2.8,3v5.1h-1.1V2.7z"/>
	<path class="st0" d="M49.4,10.7c0,1.6,0.8,3.5,2.9,3.5c1.6,0,2.4-0.9,2.8-2.2h1.1c-0.5,2-1.6,3.1-3.8,3.1c-2.8,0-4-2.1-4-4.6
		c0-2.3,1.2-4.6,4-4.6c2.8,0,3.9,2.5,3.9,4.9H49.4z M55,9.8C55,8.2,54,6.7,52.2,6.7c-1.8,0-2.7,1.5-2.9,3.1H55z"/>
	<path class="st0" d="M65.7,7h-1.7v7.9h-1.1V7h-1.5V6.1h1.5V5.3c0-1.5,0.4-2.6,2.1-2.6c0.3,0,0.6,0,0.9,0.1v0.9
		c-0.3-0.1-0.5-0.1-0.8-0.1c-1.2,0-1.2,0.7-1.2,1.7v0.8h1.7V7z"/>
	<path class="st0" d="M66.6,8.8c0.1-2.1,1.5-2.9,3.6-2.9c1.5,0,3.2,0.5,3.2,2.8v4.7c0,0.4,0.2,0.6,0.6,0.6c0.1,0,0.3,0,0.3-0.1v0.9
		c-0.2,0.1-0.4,0.1-0.7,0.1c-1.1,0-1.3-0.6-1.3-1.5h0c-0.7,1.1-1.5,1.8-3.2,1.8c-1.6,0-2.9-0.8-2.9-2.6c0-2.5,2.4-2.5,4.7-2.8
		c0.9-0.1,1.4-0.2,1.4-1.2c0-1.4-1-1.8-2.3-1.8c-1.3,0-2.3,0.6-2.3,2H66.6z M72.3,10L72.3,10c-0.2,0.3-0.6,0.3-0.9,0.4
		c-1.8,0.3-4.1,0.3-4.1,2c0,1.1,1,1.7,2,1.7c1.6,0,3.1-1,3.1-2.8V10z"/>
	<path class="st0" d="M80.8,8.6c-0.1-1.3-1.1-1.9-2.3-1.9c-1,0-2.1,0.4-2.1,1.5c0,1,1.1,1.3,1.8,1.5l1.4,0.3
		c1.2,0.2,2.5,0.9,2.5,2.4c0,1.9-1.9,2.6-3.5,2.6c-2,0-3.4-1-3.6-3.1h1.1c0.1,1.4,1.2,2.2,2.6,2.2c1,0,2.4-0.4,2.4-1.7
		c0-1-1-1.4-1.9-1.6l-1.4-0.3c-1.4-0.4-2.4-0.8-2.4-2.3c0-1.8,1.8-2.5,3.3-2.5c1.8,0,3.1,0.9,3.2,2.8H80.8z"/>
	<path class="st0" d="M85.4,6.1h1.8V7h-1.8v5.9c0,0.7,0.1,1.1,0.9,1.2c0.3,0,0.6,0,0.9-0.1v0.9c-0.3,0-0.6,0-1,0
		c-1.4,0-1.9-0.5-1.9-2V7h-1.5V6.1h1.5V3.4h1.1V6.1z"/>
	<path class="st0" d="M89.3,10.7c0,1.6,0.8,3.5,2.9,3.5c1.6,0,2.4-0.9,2.8-2.2h1.1c-0.5,2-1.6,3.1-3.8,3.1c-2.8,0-4-2.1-4-4.6
		c0-2.3,1.2-4.6,4-4.6c2.8,0,3.9,2.5,3.9,4.9H89.3z M95,9.8C95,8.2,94,6.7,92.2,6.7c-1.8,0-2.7,1.5-2.9,3.1H95z"/>
	<path class="st0" d="M102.8,8.6c-0.1-1.3-1.1-1.9-2.3-1.9c-1,0-2.1,0.4-2.1,1.5c0,1,1.1,1.3,1.8,1.5l1.4,0.3
		c1.2,0.2,2.5,0.9,2.5,2.4c0,1.9-1.9,2.6-3.5,2.6c-2,0-3.4-1-3.6-3.1h1.1c0.1,1.4,1.2,2.2,2.6,2.2c1,0,2.4-0.4,2.4-1.7
		c0-1-1-1.4-1.9-1.6l-1.4-0.3c-1.4-0.4-2.4-0.8-2.4-2.3c0-1.8,1.8-2.5,3.3-2.5c1.8,0,3.1,0.9,3.2,2.8H102.8z"/>
	<path class="st0" d="M107.4,6.1h1.8V7h-1.8v5.9c0,0.7,0.1,1.1,0.9,1.2c0.3,0,0.6,0,0.9-0.1v0.9c-0.3,0-0.6,0-1,0
		c-1.4,0-1.9-0.5-1.9-2V7h-1.5V6.1h1.5V3.4h1.1V6.1z"/>
	<path class="st0" d="M112.8,13v1.8c0,1-0.5,2-1.5,2.3v-0.7c0.6-0.2,0.8-1,0.8-1.6h-0.7V13H112.8z"/>
	<path class="st0" d="M120.2,6.1h1v1.5h0.1c0.6-1.1,1.5-1.7,2.9-1.7c1.2,0,2.2,0.6,2.5,1.7c0.5-1.2,1.6-1.7,2.8-1.7
		c1.9,0,2.9,1,2.9,3.1v5.9h-1.1V8.9c0-1.4-0.5-2.2-2.1-2.2c-1.9,0-2.4,1.5-2.4,3.2v5h-1.1V8.9c0-1.2-0.5-2.2-1.8-2.2
		c-1.9,0-2.6,1.4-2.6,3.2v4.9h-1.1V6.1z"/>
	<path class="st0" d="M142.2,10.5c0,2.5-1.5,4.6-4.1,4.6s-4.1-2.1-4.1-4.6c0-2.5,1.5-4.6,4.1-4.6S142.2,7.9,142.2,10.5z M135,10.5
		c0,1.9,1,3.7,3.1,3.7s3.1-1.9,3.1-3.7c0-1.9-1-3.7-3.1-3.7S135,8.6,135,10.5z"/>
	<path class="st0" d="M149.1,8.6c-0.1-1.3-1.1-1.9-2.3-1.9c-1,0-2.1,0.4-2.1,1.5c0,1,1.1,1.3,1.8,1.5l1.4,0.3
		c1.2,0.2,2.5,0.9,2.5,2.4c0,1.9-1.9,2.6-3.5,2.6c-2,0-3.4-1-3.6-3.1h1.1c0.1,1.4,1.2,2.2,2.6,2.2c1,0,2.4-0.4,2.4-1.7
		c0-1-1-1.4-1.9-1.6l-1.4-0.3c-1.4-0.4-2.4-0.8-2.4-2.3c0-1.8,1.8-2.5,3.3-2.5c1.8,0,3.1,0.9,3.2,2.8H149.1z"/>
	<path class="st0" d="M153.7,6.1h1.8V7h-1.8v5.9c0,0.7,0.1,1.1,0.9,1.2c0.3,0,0.6,0,0.9-0.1v0.9c-0.3,0-0.6,0-1,0
		c-1.4,0-1.9-0.5-1.9-2V7h-1.5V6.1h1.5V3.4h1.1V6.1z"/>
	<path class="st0" d="M167.9,8.8c-0.3-1.3-1.1-2.1-2.5-2.1c-2.1,0-3.1,1.9-3.1,3.7c0,1.9,1,3.7,3.1,3.7c1.3,0,2.4-1,2.5-2.5h1.1
		c-0.3,2.1-1.7,3.4-3.6,3.4c-2.7,0-4.1-2.1-4.1-4.6c0-2.5,1.5-4.6,4.1-4.6c1.9,0,3.3,1,3.6,3H167.9z"/>
	<path class="st0" d="M178.4,10.5c0,2.5-1.5,4.6-4.1,4.6c-2.7,0-4.1-2.1-4.1-4.6c0-2.5,1.5-4.6,4.1-4.6
		C177,5.8,178.4,7.9,178.4,10.5z M171.2,10.5c0,1.9,1,3.7,3.1,3.7s3.1-1.9,3.1-3.7c0-1.9-1-3.7-3.1-3.7S171.2,8.6,171.2,10.5z"/>
	<path class="st0" d="M180,6.1h1.1v1.5h0c0.4-1.1,1.6-1.8,2.8-1.8c2.5,0,3.2,1.3,3.2,3.4v5.6H186V9.4c0-1.5-0.5-2.7-2.2-2.7
		c-1.7,0-2.7,1.3-2.8,3v5.1H180V6.1z"/>
	<path class="st0" d="M194.4,8.6c-0.1-1.3-1.1-1.9-2.3-1.9c-1,0-2.1,0.4-2.1,1.5c0,1,1.1,1.3,1.8,1.5l1.4,0.3
		c1.2,0.2,2.5,0.9,2.5,2.4c0,1.9-1.9,2.6-3.5,2.6c-2,0-3.4-1-3.6-3.1h1.1c0.1,1.4,1.2,2.2,2.6,2.2c1,0,2.4-0.4,2.4-1.7
		c0-1-1-1.4-1.9-1.6l-1.4-0.3c-1.4-0.4-2.4-0.8-2.4-2.3c0-1.8,1.8-2.5,3.3-2.5c1.8,0,3.1,0.9,3.2,2.8H194.4z"/>
	<path class="st0" d="M197.3,2.7h1.1v1.7h-1.1V2.7z M197.3,6.1h1.1v8.8h-1.1V6.1z"/>
	<path class="st0" d="M205.7,8.6c-0.1-1.3-1.1-1.9-2.3-1.9c-1,0-2.1,0.4-2.1,1.5c0,1,1.1,1.3,1.8,1.5l1.4,0.3
		c1.2,0.2,2.5,0.9,2.5,2.4c0,1.9-1.9,2.6-3.5,2.6c-2,0-3.4-1-3.6-3.1h1.1c0.1,1.4,1.2,2.2,2.6,2.2c1,0,2.4-0.4,2.4-1.7
		c0-1-1-1.4-1.9-1.6l-1.4-0.3c-1.4-0.4-2.4-0.8-2.4-2.3c0-1.8,1.8-2.5,3.3-2.5c1.8,0,3.1,0.9,3.2,2.8H205.7z"/>
	<path class="st0" d="M210.3,6.1h1.8V7h-1.8v5.9c0,0.7,0.1,1.1,0.9,1.2c0.3,0,0.6,0,0.9-0.1v0.9c-0.3,0-0.6,0-1,0
		c-1.4,0-1.9-0.5-1.9-2V7h-1.5V6.1h1.5V3.4h1.1V6.1z"/>
	<path class="st0" d="M214.3,10.7c0,1.6,0.8,3.5,2.9,3.5c1.6,0,2.4-0.9,2.8-2.2h1.1c-0.5,2-1.6,3.1-3.8,3.1c-2.8,0-4-2.1-4-4.6
		c0-2.3,1.2-4.6,4-4.6c2.8,0,3.9,2.5,3.9,4.9H214.3z M220,9.8c-0.1-1.6-1.1-3.1-2.8-3.1c-1.8,0-2.7,1.5-2.9,3.1H220z"/>
	<path class="st0" d="M222.5,6.1h1.1v1.5h0c0.4-1.1,1.6-1.8,2.8-1.8c2.5,0,3.2,1.3,3.2,3.4v5.6h-1.1V9.4c0-1.5-0.5-2.7-2.2-2.7
		c-1.7,0-2.7,1.3-2.8,3v5.1h-1.1V6.1z"/>
	<path class="st0" d="M233.3,6.1h1.8V7h-1.8v5.9c0,0.7,0.1,1.1,0.9,1.2c0.3,0,0.6,0,0.9-0.1v0.9c-0.3,0-0.6,0-1,0
		c-1.4,0-1.9-0.5-1.9-2V7h-1.5V6.1h1.5V3.4h1.1V6.1z"/>
	<path class="st0" d="M15.2,23.1h1.1v1.7h-1.1V23.1z M15.2,26.5h1.1v8.8h-1.1V26.5z"/>
	<path class="st0" d="M18.3,26.5h1.1V28h0c0.4-1.1,1.6-1.8,2.8-1.8c2.5,0,3.2,1.3,3.2,3.4v5.6h-1.1v-5.5c0-1.5-0.5-2.7-2.2-2.7
		c-1.7,0-2.7,1.3-2.8,3v5.1h-1.1V26.5z"/>
	<path class="st0" d="M29.1,26.5h1.8v0.9h-1.8v5.9c0,0.7,0.1,1.1,0.9,1.2c0.3,0,0.6,0,0.9-0.1v0.9c-0.3,0-0.6,0-1,0
		c-1.4,0-1.9-0.5-1.9-2v-6h-1.5v-0.9h1.5v-2.6h1.1V26.5z"/>
	<path class="st0" d="M33.1,31.1c0,1.6,0.8,3.5,2.9,3.5c1.6,0,2.4-0.9,2.8-2.2h1.1c-0.5,2-1.6,3.1-3.8,3.1c-2.8,0-4-2.1-4-4.6
		c0-2.3,1.2-4.6,4-4.6c2.8,0,3.9,2.5,3.9,4.9H33.1z M38.8,30.2c-0.1-1.6-1.1-3.1-2.8-3.1c-1.8,0-2.7,1.5-2.9,3.1H38.8z"/>
	<path class="st0" d="M41.3,26.5h1v2.1h0c0.5-1.4,1.7-2.2,3.3-2.2v1.1c-1.9-0.1-3.3,1.3-3.3,3.1v4.7h-1.1V26.5z"/>
	<path class="st0" d="M46.9,26.5H48V28h0c0.4-1.1,1.6-1.8,2.8-1.8c2.5,0,3.2,1.3,3.2,3.4v5.6H53v-5.5c0-1.5-0.5-2.7-2.2-2.7
		c-1.7,0-2.7,1.3-2.8,3v5.1h-1.1V26.5z"/>
	<path class="st0" d="M56.7,31.1c0,1.6,0.8,3.5,2.9,3.5c1.6,0,2.4-0.9,2.8-2.2h1.1c-0.5,2-1.6,3.1-3.8,3.1c-2.8,0-4-2.1-4-4.6
		c0-2.3,1.2-4.6,4-4.6c2.8,0,3.9,2.5,3.9,4.9H56.7z M62.4,30.2c-0.1-1.6-1.1-3.1-2.8-3.1c-1.8,0-2.7,1.5-2.9,3.1H62.4z"/>
	<path class="st0" d="M66.6,26.5h1.8v0.9h-1.8v5.9c0,0.7,0.1,1.1,0.9,1.2c0.3,0,0.6,0,0.9-0.1v0.9c-0.3,0-0.6,0-1,0
		c-1.4,0-1.9-0.5-1.9-2v-6H64v-0.9h1.5v-2.6h1.1V26.5z"/>
	<path class="st0" d="M76.4,26.5h1.8v0.9h-1.8v5.9c0,0.7,0.1,1.1,0.9,1.2c0.3,0,0.6,0,0.9-0.1v0.9c-0.3,0-0.6,0-1,0
		c-1.4,0-1.9-0.5-1.9-2v-6h-1.5v-0.9h1.5v-2.6h1.1V26.5z"/>
	<path class="st0" d="M80.3,31.1c0,1.6,0.8,3.5,2.9,3.5c1.6,0,2.4-0.9,2.8-2.2H87c-0.5,2-1.6,3.1-3.8,3.1c-2.8,0-4-2.1-4-4.6
		c0-2.3,1.2-4.6,4-4.6c2.8,0,3.9,2.5,3.9,4.9H80.3z M86,30.2c-0.1-1.6-1.1-3.1-2.8-3.1c-1.8,0-2.7,1.5-2.9,3.1H86z"/>
	<path class="st0" d="M94.7,29.2c-0.3-1.3-1.1-2.1-2.5-2.1c-2.1,0-3.1,1.9-3.1,3.7s1,3.7,3.1,3.7c1.3,0,2.4-1,2.5-2.5h1.1
		c-0.3,2.1-1.7,3.4-3.6,3.4c-2.7,0-4.1-2.1-4.1-4.6c0-2.5,1.5-4.6,4.1-4.6c1.9,0,3.3,1,3.6,3H94.7z"/>
	<path class="st0" d="M97.3,23.1h1.1V28h0c0.4-1.1,1.6-1.8,2.8-1.8c2.5,0,3.2,1.3,3.2,3.4v5.6h-1.1v-5.5c0-1.5-0.5-2.7-2.2-2.7
		c-1.7,0-2.7,1.3-2.8,3v5.1h-1.1V23.1z"/>
	<path class="st0" d="M106.4,26.5h1.1V28h0c0.4-1.1,1.6-1.8,2.8-1.8c2.5,0,3.2,1.3,3.2,3.4v5.6h-1.1v-5.5c0-1.5-0.5-2.7-2.2-2.7
		c-1.7,0-2.7,1.3-2.8,3v5.1h-1.1V26.5z"/>
	<path class="st0" d="M123.4,30.9c0,2.5-1.5,4.6-4.1,4.6c-2.7,0-4.1-2.1-4.1-4.6c0-2.5,1.5-4.6,4.1-4.6
		C122,26.2,123.4,28.3,123.4,30.9z M116.2,30.9c0,1.9,1,3.7,3.1,3.7s3.1-1.9,3.1-3.7s-1-3.7-3.1-3.7S116.2,29,116.2,30.9z"/>
	<path class="st0" d="M125.1,23.1h1.1v12.1h-1.1V23.1z"/>
	<path class="st0" d="M136,30.9c0,2.5-1.5,4.6-4.1,4.6c-2.7,0-4.1-2.1-4.1-4.6c0-2.5,1.5-4.6,4.1-4.6C134.6,26.2,136,28.3,136,30.9z
		 M128.8,30.9c0,1.9,1,3.7,3.1,3.7s3.1-1.9,3.1-3.7s-1-3.7-3.1-3.7S128.8,29,128.8,30.9z"/>
	<path class="st0" d="M145.1,34.5c0,2.6-1,4.2-3.9,4.2c-1.8,0-3.5-0.8-3.6-2.7h1.1c0.2,1.3,1.4,1.8,2.6,1.8c2,0,2.8-1.2,2.8-3.3
		v-1.2h0c-0.5,1.1-1.5,1.8-2.8,1.8c-2.8,0-4-2-4-4.5c0-2.4,1.4-4.4,4-4.4c1.3,0,2.4,0.8,2.8,1.8h0v-1.5h1.1V34.5z M144,30.7
		c0-1.7-0.8-3.6-2.8-3.6c-2,0-2.9,1.8-2.9,3.6c0,1.8,0.9,3.5,2.9,3.5C143,34.2,144,32.5,144,30.7z"/>
	<path class="st0" d="M146.1,26.5h1.1l2.9,7.5l2.7-7.5h1.1l-3.8,10.1c-0.6,1.5-1,1.9-2.3,1.9c-0.4,0-0.6,0-0.8-0.1v-0.9
		c0.3,0.1,0.5,0.1,0.7,0.1c1,0,1.2-0.6,1.5-1.4l0.4-1L146.1,26.5z"/>
	<path class="st0" d="M167.4,35.2h-1v-1.7h0c-0.5,1.1-1.9,1.9-3.1,1.9c-2.7,0-3.9-2.2-3.9-4.6c0-2.5,1.3-4.6,3.9-4.6
		c1.3,0,2.6,0.7,3,1.9h0v-5h1.1V35.2z M163.3,34.6c2.3,0,3.1-1.9,3.1-3.7c0-1.8-0.8-3.7-3.1-3.7c-2,0-2.9,1.9-2.9,3.7
		C160.4,32.7,161.2,34.6,163.3,34.6z"/>
	<path class="st0" d="M170.1,31.1c0,1.6,0.8,3.5,2.9,3.5c1.6,0,2.4-0.9,2.8-2.2h1.1c-0.5,2-1.6,3.1-3.8,3.1c-2.8,0-4-2.1-4-4.6
		c0-2.3,1.2-4.6,4-4.6c2.8,0,3.9,2.5,3.9,4.9H170.1z M175.8,30.2c-0.1-1.6-1.1-3.1-2.8-3.1c-1.8,0-2.7,1.5-2.9,3.1H175.8z"/>
	<path class="st0" d="M178.3,23.1h1.1v12.1h-1.1V23.1z"/>
	<path class="st0" d="M181.4,23.1h1.1v1.7h-1.1V23.1z M181.4,26.5h1.1v8.8h-1.1V26.5z"/>
	<path class="st0" d="M183.6,26.5h1.2l2.8,7.7h0l2.7-7.7h1.1l-3.3,8.8H187L183.6,26.5z"/>
	<path class="st0" d="M193.1,31.1c0,1.6,0.8,3.5,2.9,3.5c1.6,0,2.4-0.9,2.8-2.2h1.1c-0.5,2-1.6,3.1-3.8,3.1c-2.8,0-4-2.1-4-4.6
		c0-2.3,1.2-4.6,4-4.6c2.8,0,3.9,2.5,3.9,4.9H193.1z M198.7,30.2c-0.1-1.6-1.1-3.1-2.8-3.1c-1.8,0-2.7,1.5-2.9,3.1H198.7z"/>
	<path class="st0" d="M201.3,26.5h1v2.1h0c0.5-1.4,1.7-2.2,3.3-2.2v1.1c-1.9-0.1-3.3,1.3-3.3,3.1v4.7h-1.1V26.5z"/>
	<path class="st0" d="M206.9,31.1c0,1.6,0.8,3.5,2.9,3.5c1.6,0,2.4-0.9,2.8-2.2h1.1c-0.5,2-1.6,3.1-3.8,3.1c-2.8,0-4-2.1-4-4.6
		c0-2.3,1.2-4.6,4-4.6c2.8,0,3.9,2.5,3.9,4.9H206.9z M212.6,30.2c-0.1-1.6-1.1-3.1-2.8-3.1c-1.8,0-2.7,1.5-2.9,3.1H212.6z"/>
	<path class="st0" d="M222.8,35.2h-1v-1.7h0c-0.5,1.1-1.9,1.9-3.1,1.9c-2.7,0-3.9-2.2-3.9-4.6c0-2.5,1.3-4.6,3.9-4.6
		c1.3,0,2.6,0.7,3,1.9h0v-5h1.1V35.2z M218.7,34.6c2.3,0,3.1-1.9,3.1-3.7c0-1.8-0.8-3.7-3.1-3.7c-2,0-2.9,1.9-2.9,3.7
		C215.8,32.7,216.7,34.6,218.7,34.6z"/>
	<path class="st0" d="M55.1,46.9h1v2.1h0c0.5-1.4,1.7-2.2,3.3-2.2v1.1c-1.9-0.1-3.3,1.3-3.3,3.1v4.7h-1.1V46.9z"/>
	<path class="st0" d="M60.5,43.5h1.1v1.7h-1.1V43.5z M60.5,46.9h1.1v8.8h-1.1V46.9z"/>
	<path class="st0" d="M71.1,54.9c0,2.6-1,4.2-3.9,4.2c-1.8,0-3.5-0.8-3.6-2.7h1.1c0.2,1.3,1.4,1.8,2.6,1.8c2,0,2.8-1.2,2.8-3.3v-1.2
		h0c-0.5,1.1-1.5,1.8-2.8,1.8c-2.8,0-4-2-4-4.5c0-2.4,1.4-4.4,4-4.4c1.3,0,2.4,0.8,2.8,1.8h0v-1.5h1.1V54.9z M70,51.1
		c0-1.7-0.8-3.6-2.8-3.6c-2,0-2.9,1.8-2.9,3.6c0,1.8,0.9,3.5,2.9,3.5C69,54.6,70,52.9,70,51.1z"/>
	<path class="st0" d="M73.1,43.5h1.1v4.9h0c0.4-1.1,1.6-1.8,2.8-1.8c2.5,0,3.2,1.3,3.2,3.4v5.6h-1.1v-5.5c0-1.5-0.5-2.7-2.2-2.7
		c-1.7,0-2.7,1.3-2.8,3v5.1h-1.1V43.5z"/>
	<path class="st0" d="M83.9,46.9h1.8v0.9h-1.8v5.9c0,0.7,0.1,1.1,0.9,1.2c0.3,0,0.6,0,0.9-0.1v0.9c-0.3,0-0.6,0-1,0
		c-1.4,0-1.9-0.5-1.9-2v-6h-1.5v-0.9h1.5v-2.6h1.1V46.9z"/>
	<path class="st0" d="M93.7,46.9h1.8v0.9h-1.8v5.9c0,0.7,0.1,1.1,0.9,1.2c0.3,0,0.6,0,0.9-0.1v0.9c-0.3,0-0.6,0-1,0
		c-1.4,0-1.9-0.5-1.9-2v-6h-1.5v-0.9h1.5v-2.6h1.1V46.9z"/>
	<path class="st0" d="M104.9,51.3c0,2.5-1.5,4.6-4.1,4.6c-2.7,0-4.1-2.1-4.1-4.6c0-2.5,1.5-4.6,4.1-4.6
		C103.4,46.6,104.9,48.7,104.9,51.3z M97.6,51.3c0,1.9,1,3.7,3.1,3.7s3.1-1.9,3.1-3.7c0-1.9-1-3.7-3.1-3.7S97.6,49.4,97.6,51.3z"/>
	<path class="st0" d="M110.2,46.9h1.1l2.9,7.5l2.7-7.5h1.1L114.2,57c-0.6,1.5-1,1.9-2.3,1.9c-0.4,0-0.6,0-0.8-0.1v-0.9
		c0.3,0.1,0.5,0.1,0.7,0.1c1,0,1.2-0.6,1.5-1.4l0.4-1L110.2,46.9z"/>
	<path class="st0" d="M126.9,51.3c0,2.5-1.5,4.6-4.1,4.6c-2.7,0-4.1-2.1-4.1-4.6c0-2.5,1.5-4.6,4.1-4.6
		C125.5,46.6,126.9,48.7,126.9,51.3z M119.7,51.3c0,1.9,1,3.7,3.1,3.7s3.1-1.9,3.1-3.7c0-1.9-1-3.7-3.1-3.7S119.7,49.4,119.7,51.3z"
		/>
	<path class="st0" d="M135.6,55.6h-1v-1.6h0c-0.6,1.2-1.7,1.8-3,1.8c-2.2,0-3.1-1.3-3.1-3.3v-5.7h1.1v5.7c0.1,1.6,0.6,2.4,2.3,2.4
		c1.8,0,2.6-1.7,2.6-3.5v-4.6h1.1V55.6z"/>
	<path class="st0" d="M137.6,46.9h1v2.1h0c0.5-1.4,1.7-2.2,3.3-2.2v1.1c-1.9-0.1-3.3,1.3-3.3,3.1v4.7h-1.1V46.9z"/>
	<path class="st0" d="M155.4,55.6h-1V54h0c-0.5,1.1-1.9,1.9-3.1,1.9c-2.7,0-3.9-2.2-3.9-4.6c0-2.5,1.3-4.6,3.9-4.6
		c1.3,0,2.6,0.7,3,1.9h0v-5h1.1V55.6z M151.3,55c2.3,0,3.1-1.9,3.1-3.7c0-1.8-0.8-3.7-3.1-3.7c-2,0-2.9,1.9-2.9,3.7
		C148.4,53.1,149.3,55,151.3,55z"/>
	<path class="st0" d="M165.3,51.3c0,2.5-1.5,4.6-4.1,4.6s-4.1-2.1-4.1-4.6c0-2.5,1.5-4.6,4.1-4.6S165.3,48.7,165.3,51.3z
		 M158.1,51.3c0,1.9,1,3.7,3.1,3.7s3.1-1.9,3.1-3.7c0-1.9-1-3.7-3.1-3.7S158.1,49.4,158.1,51.3z"/>
	<path class="st0" d="M174.8,51.3c0,2.5-1.5,4.6-4.1,4.6s-4.1-2.1-4.1-4.6c0-2.5,1.5-4.6,4.1-4.6S174.8,48.7,174.8,51.3z
		 M167.6,51.3c0,1.9,1,3.7,3.1,3.7s3.1-1.9,3.1-3.7c0-1.9-1-3.7-3.1-3.7S167.6,49.4,167.6,51.3z"/>
	<path class="st0" d="M176.4,46.9h1v2.1h0c0.5-1.4,1.7-2.2,3.3-2.2v1.1c-1.9-0.1-3.3,1.3-3.3,3.1v4.7h-1.1V46.9z"/>
	<path class="st0" d="M180.8,55.6v-1.8h1.4v1.8H180.8z"/>
</g>
</svg>
