<?xml version="1.0" encoding="utf-8"?>
<!-- Generator: Adobe Illustrator 19.2.1, SVG Export Plug-In . SVG Version: 6.00 Build 0)  -->
<svg version="1.1" id="Layer_1" xmlns="http://www.w3.org/2000/svg" xmlns:xlink="http://www.w3.org/1999/xlink" x="0px" y="0px"
	 width="200.1px" height="78.9px" viewBox="0 0 200.1 78.9" style="enable-background:new 0 0 200.1 78.9;" xml:space="preserve">
<style type="text/css">
	.st0{fill:#49166D;}
</style>
<g>
	<path class="st0" d="M47.9,10.1c-0.1,2.5,1.8,3.3,4,3.3c1.3,0,3.2-0.7,3.2-2.5c0-1.4-1.4-1.9-2.5-2.2L49.9,8
		c-1.4-0.4-2.7-1-2.7-2.9c0-1.2,0.8-3.4,4.2-3.4c2.4,0,4.5,1.3,4.5,3.8h-1.2c-0.1-1.9-1.6-2.8-3.3-2.8c-1.6,0-3,0.6-3,2.4
		c0,1.1,0.9,1.6,1.8,1.9l3,0.7c1.7,0.5,3.1,1.2,3.1,3.2c0,0.8-0.3,3.5-4.6,3.5c-2.9,0-5-1.3-4.8-4.2h1V10.1z"/>
	<path class="st0" d="M57.9,2H59v1.7h-1.1V2z M57.9,5.3H59v8.8h-1.1V5.3z"/>
	<path class="st0" d="M68.5,13.4c0,2.6-1,4.2-3.9,4.2c-1.8,0-3.5-0.8-3.6-2.7h1c0.2,1.3,1.4,1.8,2.6,1.8c2,0,2.8-1.2,2.8-3.3v-1.2
		l0,0c-0.5,1.1-1.5,1.8-2.8,1.8c-2.8,0-4-2-4-4.5c0-2.4,1.4-4.4,4-4.4c1.3,0,2.4,0.8,2.8,1.8l0,0V5.3h1.1V13.4z M67.4,9.6
		c0-1.7-0.8-3.6-2.8-3.6s-2.9,1.8-2.9,3.6s0.9,3.5,2.9,3.5C66.4,13.1,67.4,11.4,67.4,9.6z"/>
	<path class="st0" d="M70.5,5.3h1.1v1.5l0,0C72,5.7,73.2,5,74.4,5c2.5,0,3.2,1.3,3.2,3.4V14h-1.1V8.6C76.5,7.1,76,6,74.3,6
		s-2.7,1.3-2.8,3v5.1h-1.1L70.5,5.3L70.5,5.3z"/>
	<path class="st0" d="M91.5,14.1h-1v-1.6l0,0c-0.6,1.2-1.7,1.8-3,1.8c-2.2,0-3.1-1.3-3.1-3.3V5.3h1.1V11c0.1,1.6,0.6,2.4,2.3,2.4
		c1.8,0,2.6-1.7,2.6-3.5V5.3h1.1V14.1z"/>
	<path class="st0" d="M93.5,5.3h1V7l0,0c0.5-1.2,1.7-1.9,3.1-1.9c2.7,0,3.9,2.2,3.9,4.6c0,2.5-1.3,4.6-3.9,4.6c-1.3,0-2.6-0.7-3-1.9
		l0,0v4.9h-1.1V5.3z M97.6,6c-2.4,0-3.1,1.8-3.1,3.7c0,1.8,0.8,3.7,3.1,3.7c2,0,2.9-1.9,2.9-3.7S99.7,6,97.6,6z"/>
	<path class="st0" d="M111.3,6.2h-1.7v7.9h-1.1V6.2H107V5.3h1.5V4.5c0-1.5,0.4-2.6,2.1-2.6c0.3,0,0.6,0,0.9,0.1v1
		c-0.3-0.1-0.5-0.1-0.8-0.1c-1.2,0-1.2,0.7-1.2,1.7v0.8h1.7v0.8H111.3z"/>
	<path class="st0" d="M120.2,9.7c0,2.5-1.5,4.6-4.1,4.6s-4.1-2.1-4.1-4.6s1.5-4.6,4.1-4.6S120.2,7.2,120.2,9.7z M113,9.7
		c0,1.9,1,3.7,3.1,3.7s3.1-1.9,3.1-3.7c0-1.9-1-3.7-3.1-3.7S113,7.9,113,9.7z"/>
	<path class="st0" d="M121.8,5.3h1v2.1l0,0c0.5-1.4,1.7-2.2,3.3-2.2v1.1c-1.9-0.1-3.3,1.3-3.3,3.1v4.7h-1.1L121.8,5.3L121.8,5.3z"/>
	<path class="st0" d="M133.6,5.3h1.8v0.9h-1.8v5.9c0,0.7,0.1,1.1,0.9,1.2c0.3,0,0.6,0,0.9-0.1v0.9c-0.3,0-0.6,0-1,0
		c-1.4,0-1.9-0.5-1.9-2v-6H131V5.3h1.5V2.7h1.1V5.3z"/>
	<path class="st0" d="M136.9,2h1.1v4.9l0,0c0.4-1.1,1.6-1.8,2.8-1.8c2.5,0,3.2,1.3,3.2,3.4v5.6h-1V8.6c0-1.5-0.5-2.7-2.2-2.7
		C139,6,138,7.3,138,9v5.1h-1.1V2z"/>
	<path class="st0" d="M146.7,10c0,1.6,0.8,3.5,2.9,3.5c1.6,0,2.4-0.9,2.8-2.2h1.1c-0.5,2-1.6,3.1-3.8,3.1c-2.8,0-4-2.1-4-4.6
		c0-2.3,1.2-4.6,4-4.6s3.9,2.5,3.9,4.9L146.7,10L146.7,10z M152.4,9.1c-0.1-1.6-1.1-3.1-2.8-3.1c-1.8,0-2.7,1.5-2.9,3.1H152.4z"/>
	<path class="st0" d="M0,22.4h9.6v1H5.4v11.2H4.2V23.4H0V22.4z"/>
	<path class="st0" d="M10.8,22.4h8.4v1H12v4.4h6.8v1H12v4.8h7.3v1h-8.5C10.8,34.6,10.8,22.4,10.8,22.4z"/>
	<path class="st0" d="M20.8,22.4H22v11.2h6.8v1h-8V22.4z"/>
	<path class="st0" d="M29.9,22.4H31v7.5c0,2.8,1.3,3.9,3.6,3.9c2.2,0,3.6-1.1,3.6-3.9v-7.5h1.2v7.8c0,2.5-1.3,4.6-4.7,4.6
		S30,32.7,30,30.2L29.9,22.4L29.9,22.4z"/>
	<path class="st0" d="M42.2,30.5c-0.1,2.5,1.8,3.3,4,3.3c1.3,0,3.2-0.7,3.2-2.5c0-1.4-1.4-1.9-2.5-2.2l-2.7-0.7
		c-1.4-0.4-2.7-1-2.7-2.9c0-1.2,0.8-3.4,4.2-3.4c2.4,0,4.5,1.3,4.5,3.8H49c-0.1-1.9-1.6-2.8-3.3-2.8c-1.6,0-3,0.6-3,2.4
		c0,1.1,0.9,1.6,1.8,1.9l3,0.7c1.7,0.5,3.1,1.2,3.1,3.2c0,0.8-0.3,3.5-4.6,3.5c-2.9,0-5-1.3-4.8-4.2L42.2,30.5L42.2,30.5z"/>
	<path class="st0" d="M57.1,22.4h5.4c2.2,0,3.6,1.3,3.6,3.5s-1.4,3.5-3.6,3.5h-4.2v5.2h-1.2V22.4z M58.2,28.3h4
		c1.6,0,2.7-0.8,2.7-2.5s-1.1-2.5-2.7-2.5h-4V28.3z"/>
	<path class="st0" d="M74.7,34.5h-1v-1.6l0,0c-0.6,1.2-1.7,1.8-3,1.8c-2.2,0-3.1-1.3-3.1-3.3v-5.7h1.1v5.7c0.1,1.6,0.6,2.4,2.3,2.4
		c1.8,0,2.6-1.7,2.6-3.5v-4.6h1.1V34.5z"/>
	<path class="st0" d="M76.7,25.7h1v2.1l0,0c0.5-1.4,1.7-2.2,3.3-2.2v1.1c-1.9-0.1-3.3,1.3-3.3,3.1v4.7h-1.1L76.7,25.7L76.7,25.7z"/>
	<path class="st0" d="M82.4,30.4c0,1.6,0.8,3.5,2.9,3.5c1.6,0,2.4-0.9,2.8-2.2h1.1c-0.5,2-1.6,3.1-3.8,3.1c-2.8,0-4-2.1-4-4.6
		c0-2.3,1.2-4.6,4-4.6s3.9,2.5,3.9,4.9L82.4,30.4L82.4,30.4z M88,29.5c-0.1-1.6-1.1-3.1-2.8-3.1c-1.8,0-2.7,1.5-2.9,3.1H88z"/>
	<path class="st0" d="M90.8,22.4h7.7v1H92v4.4h5.8v1H92v5.8h-1.2V22.4z"/>
	<path class="st0" d="M99.7,22.4h1.1v1.7h-1.1V22.4z M99.7,25.7h1.1v8.8h-1.1V25.7z"/>
	<path class="st0" d="M102.8,22.4h1.1v5l0,0c0.5-1.3,1.7-1.9,3-1.9c2.7,0,3.9,2.2,3.9,4.6c0,2.5-1.3,4.6-3.9,4.6
		c-1.4,0-2.6-0.7-3.1-1.9l0,0v1.7h-1V22.4z M107,26.4c-2.3,0-3.1,1.9-3.1,3.7s0.8,3.7,3.1,3.7c2,0,2.9-1.9,2.9-3.7
		S109,26.4,107,26.4z"/>
	<path class="st0" d="M112.6,25.7h1v2.1l0,0c0.5-1.4,1.7-2.2,3.3-2.2v1.1c-1.9-0.1-3.3,1.3-3.3,3.1v4.7h-1.1L112.6,25.7L112.6,25.7z
		"/>
	<path class="st0" d="M118.3,30.4c0,1.6,0.8,3.5,2.9,3.5c1.6,0,2.4-0.9,2.8-2.2h1.1c-0.5,2-1.6,3.1-3.8,3.1c-2.8,0-4-2.1-4-4.6
		c0-2.3,1.2-4.6,4-4.6s3.9,2.5,3.9,4.9L118.3,30.4L118.3,30.4z M123.9,29.5c-0.1-1.6-1.1-3.1-2.8-3.1c-1.8,0-2.7,1.5-2.9,3.1H123.9z
		"/>
	<path class="st0" d="M127.8,27v-4h-1.5v-0.5h3.5V23h-1.5v4H127.8z M130.7,27v-4.5h0.9l1.5,3.7l1.4-3.7h0.9V27h-0.6v-4l0,0l-1.6,4
		h-0.3l-1.6-4l0,0v4H130.7z"/>
	<path class="st0" d="M142.1,25.7h1.1v1.5l0,0c0.4-1.1,1.6-1.8,2.8-1.8c2.5,0,3.2,1.3,3.2,3.4v5.6h-1.1V29c0-1.5-0.5-2.7-2.2-2.7
		s-2.7,1.3-2.8,3v5.1H142v-8.7H142.1z"/>
	<path class="st0" d="M151.8,30.4c0,1.6,0.8,3.5,2.9,3.5c1.6,0,2.4-0.9,2.8-2.2h1.1c-0.5,2-1.6,3.1-3.8,3.1c-2.8,0-4-2.1-4-4.6
		c0-2.3,1.2-4.6,4-4.6s3.9,2.5,3.9,4.9L151.8,30.4L151.8,30.4z M157.5,29.5c-0.1-1.6-1.1-3.1-2.8-3.1c-1.8,0-2.7,1.5-2.9,3.1H157.5z
		"/>
	<path class="st0" d="M161.7,25.7h1.8v0.9h-1.8v5.9c0,0.7,0.1,1.1,0.9,1.2c0.3,0,0.6,0,0.9-0.1v0.9c-0.3,0-0.6,0-1,0
		c-1.4,0-1.9-0.5-1.9-2v-6h-1.5v-0.9h1.5V23h1.1V25.7z"/>
	<path class="st0" d="M164.2,25.7h1.1l2.2,7.5l0,0l2.1-7.5h1.2l2.1,7.5l0,0l2.2-7.5h1.1l-2.8,8.8h-1.2l-2.2-7.4l0,0l-2.1,7.4H167
		L164.2,25.7z"/>
	<path class="st0" d="M185.5,30.1c0,2.5-1.5,4.6-4.1,4.6s-4.1-2.1-4.1-4.6s1.5-4.6,4.1-4.6S185.5,27.6,185.5,30.1z M178.3,30.1
		c0,1.9,1,3.7,3.1,3.7s3.1-1.9,3.1-3.7c0-1.9-1-3.7-3.1-3.7S178.3,28.3,178.3,30.1z"/>
	<path class="st0" d="M187.1,25.7h1v2.1l0,0c0.5-1.4,1.7-2.2,3.3-2.2v1.1c-1.9-0.1-3.3,1.3-3.3,3.1v4.7H187v-8.8H187.1z"/>
	<path class="st0" d="M192.5,22.4h1.1V30l4.9-4.2h1.4l-3.7,3.2l4,5.5h-1.3l-3.5-4.8l-1.7,1.4v3.3h-1.1L192.5,22.4L192.5,22.4z"/>
	<path class="st0" d="M43.2,50.5c0,2.5-1.5,4.6-4.1,4.6c-2.7,0-4.1-2.1-4.1-4.6s1.5-4.6,4.1-4.6C41.8,45.9,43.2,48,43.2,50.5z
		 M36,50.5c0,1.9,1,3.7,3.1,3.7s3.1-1.9,3.1-3.7c0-1.9-1-3.7-3.1-3.7S36,48.7,36,50.5z"/>
	<path class="st0" d="M44.8,46.1h1.1v1.5l0,0c0.4-1.1,1.6-1.8,2.8-1.8c2.5,0,3.2,1.3,3.2,3.4v5.6h-1.1v-5.5c0-1.5-0.5-2.7-2.2-2.7
		s-2.7,1.3-2.8,3v5.1h-1.1L44.8,46.1L44.8,46.1z"/>
	<path class="st0" d="M54,42.8h1v12.1h-1V42.8z"/>
	<path class="st0" d="M57.1,42.8h1.1v1.7h-1.1V42.8z M57.1,46.1h1.1v8.8h-1.1V46.1z"/>
	<path class="st0" d="M60.2,46.1h1.1v1.5l0,0c0.4-1.1,1.6-1.8,2.8-1.8c2.5,0,3.2,1.3,3.2,3.4v5.6h-1.1v-5.5c0-1.5-0.5-2.7-2.2-2.7
		s-2.7,1.3-2.8,3v5.1h-1.1v-8.6H60.2z"/>
	<path class="st0" d="M70,50.8c0,1.6,0.8,3.5,2.9,3.5c1.6,0,2.4-0.9,2.8-2.2h1.1c-0.5,2-1.6,3.1-3.8,3.1c-2.8,0-4-2.1-4-4.6
		c0-2.3,1.2-4.6,4-4.6s3.9,2.5,3.9,4.9H70V50.8z M75.7,49.9c-0.1-1.6-1.1-3.1-2.8-3.1c-1.8,0-2.7,1.5-2.9,3.1H75.7z"/>
	<path class="st0" d="M82.8,48.8c0.1-2.1,1.5-2.9,3.6-2.9c1.5,0,3.2,0.5,3.2,2.8v4.7c0,0.4,0.2,0.6,0.6,0.6c0.1,0,0.3,0,0.3-0.1v0.9
		c-0.2,0.1-0.4,0.1-0.7,0.1c-1.1,0-1.3-0.6-1.3-1.5l0,0c-0.7,1.1-1.5,1.8-3.2,1.8c-1.6,0-2.9-0.8-2.9-2.6c0-2.5,2.4-2.5,4.7-2.8
		c0.9-0.1,1.4-0.2,1.4-1.2c0-1.4-1-1.8-2.3-1.8s-2.3,0.6-2.3,2H82.8z M88.5,50.1L88.5,50.1c-0.2,0.3-0.6,0.3-0.9,0.4
		c-1.8,0.3-4.1,0.3-4.1,2c0,1.1,1,1.7,2,1.7c1.6,0,3.1-1,3.1-2.8L88.5,50.1L88.5,50.1z"/>
	<path class="st0" d="M91.7,46.1h1.1v1.5l0,0c0.4-1.1,1.6-1.8,2.8-1.8c2.5,0,3.2,1.3,3.2,3.4v5.6h-1.1v-5.5c0-1.5-0.5-2.7-2.2-2.7
		s-2.7,1.3-2.8,3v5.1h-1.1L91.7,46.1L91.7,46.1z"/>
	<path class="st0" d="M108.6,54.9h-1v-1.7l0,0c-0.5,1.1-1.9,1.9-3.1,1.9c-2.7,0-3.9-2.2-3.9-4.6c0-2.5,1.3-4.6,3.9-4.6
		c1.3,0,2.6,0.7,3,1.9l0,0v-5h1.1V54.9z M104.4,54.3c2.3,0,3.1-1.9,3.1-3.7s-0.8-3.7-3.1-3.7c-2,0-2.9,1.9-2.9,3.7
		S102.4,54.3,104.4,54.3z"/>
	<path class="st0" d="M115.3,46.1h1v2.1l0,0c0.5-1.4,1.7-2.2,3.3-2.2v1.1c-1.9-0.1-3.3,1.3-3.3,3.1v4.7h-1.1L115.3,46.1L115.3,46.1z
		"/>
	<path class="st0" d="M121,50.8c0,1.6,0.8,3.5,2.9,3.5c1.6,0,2.4-0.9,2.8-2.2h1.1c-0.5,2-1.6,3.1-3.8,3.1c-2.8,0-4-2.1-4-4.6
		c0-2.3,1.2-4.6,4-4.6s3.9,2.5,3.9,4.9H121V50.8z M126.7,49.9c-0.1-1.6-1.1-3.1-2.8-3.1c-1.8,0-2.7,1.5-2.9,3.1H126.7z"/>
	<path class="st0" d="M135.4,48.9c-0.3-1.3-1.1-2.1-2.5-2.1c-2.1,0-3.1,1.9-3.1,3.7c0,1.9,1,3.7,3.1,3.7c1.3,0,2.4-1,2.5-2.5h1.1
		c-0.3,2.1-1.7,3.4-3.6,3.4c-2.7,0-4.1-2.1-4.1-4.6s1.5-4.6,4.1-4.6c1.9,0,3.3,1,3.6,3C136.5,48.9,135.4,48.9,135.4,48.9z"/>
	<path class="st0" d="M138.7,50.8c0,1.6,0.8,3.5,2.9,3.5c1.6,0,2.4-0.9,2.8-2.2h1.1c-0.5,2-1.6,3.1-3.8,3.1c-2.8,0-4-2.1-4-4.6
		c0-2.3,1.2-4.6,4-4.6s3.9,2.5,3.9,4.9h-6.9V50.8z M144.3,49.9c-0.1-1.6-1.1-3.1-2.8-3.1c-1.8,0-2.7,1.5-2.9,3.1H144.3z"/>
	<path class="st0" d="M146.9,42.8h1.1v1.7h-1.1V42.8z M146.9,46.1h1.1v8.8h-1.1V46.1z"/>
	<path class="st0" d="M149,46.1h1.2l2.8,7.7l0,0l2.7-7.7h1.1l-3.3,8.8h-1.1L149,46.1z"/>
	<path class="st0" d="M158.5,50.8c0,1.6,0.8,3.5,2.9,3.5c1.6,0,2.4-0.9,2.8-2.2h1.1c-0.5,2-1.6,3.1-3.8,3.1c-2.8,0-4-2.1-4-4.6
		c0-2.3,1.2-4.6,4-4.6s3.9,2.5,3.9,4.9h-6.9V50.8z M164.2,49.9c-0.1-1.6-1.1-3.1-2.8-3.1c-1.8,0-2.7,1.5-2.9,3.1H164.2z"/>
	<path class="st0" d="M25.4,71.4c0,2,1,3,2.8,3.2v-5c-1.9-0.4-3.6-1-3.6-3.4c0-2,1.6-3.3,3.6-3.3v-1.3h0.7v1.3c2,0,3.7,1.5,3.6,3.7
		h-1.1c0-1.7-1.1-2.8-2.5-2.8v4.9c1.9,0.4,3.9,1.1,3.9,3.5c0,2.2-1.9,3.4-3.9,3.4V77h-0.7v-1.5c-2.7-0.3-3.8-1.5-3.9-4.1H25.4z
		 M28.2,63.8c-1.4,0-2.5,0.7-2.5,2.5c0,1.6,1.2,1.9,2.5,2.2V63.8z M28.9,74.7c1.4,0,2.9-0.7,2.9-2.5c0-1.6-1.5-2.1-2.9-2.4V74.7z"/>
	<path class="st0" d="M35,71.9c0.1,1.6,1.3,2.8,2.9,2.8c1.8,0,3-1.5,3-3.2c0-1.8-1.3-3.1-3-3.1c-1.1,0-2.1,0.5-2.7,1.4h-0.9l1.2-6.2
		h5.9v1h-5.2l-0.8,3.9l0,0c0.6-0.7,1.6-1.1,2.5-1.1c2.4,0,4,1.7,4,4.1c0,2.3-1.9,4-4.1,4c-2.2,0-3.9-1.4-3.9-3.7L35,71.9L35,71.9z"
		/>
	<path class="st0" d="M51.6,69.4c0,2.8-0.7,6.1-4.1,6.1s-4.1-3.3-4.1-6.1c0-2.8,0.7-6.1,4.1-6.1S51.6,66.7,51.6,69.4z M44.4,69.4
		c0,2.1,0.4,5.2,3.1,5.2s3.1-3.2,3.1-5.2c0-2.1-0.4-5.2-3.1-5.2S44.4,67.4,44.4,69.4z"/>
	<path class="st0" d="M65.8,70.9c0,2.5-1.5,4.6-4.1,4.6c-2.7,0-4.1-2.1-4.1-4.6s1.5-4.6,4.1-4.6S65.8,68.4,65.8,70.9z M58.6,70.9
		c0,1.9,1,3.7,3.1,3.7s3.1-1.9,3.1-3.7c0-1.9-1-3.7-3.1-3.7S58.6,69.1,58.6,70.9z"/>
	<path class="st0" d="M70.8,67.4H69v7.9h-1v-7.9h-1.5v-0.9H68v-0.8c0-1.5,0.4-2.6,2.1-2.6c0.3,0,0.6,0,0.9,0.1v0.9
		C70.7,64,70.5,64,70.2,64C69,64,69,64.7,69,65.7v0.8h1.7v0.9H70.8z"/>
	<path class="st0" d="M74.9,67.4h-1.7v7.9h-1.1v-7.9h-1.5v-0.9h1.5v-0.8c0-1.5,0.4-2.6,2.1-2.6c0.3,0,0.6,0,0.9,0.1v0.9
		C74.8,64,74.6,64,74.3,64c-1.2,0-1.2,0.7-1.2,1.7v0.8h1.7L74.9,67.4L74.9,67.4z"/>
	<path class="st0" d="M79.6,66.5h1.1l2.9,7.5l2.7-7.5h1.1l-3.8,10.1c-0.6,1.5-1,1.9-2.3,1.9c-0.4,0-0.6,0-0.8-0.1v-0.9
		c0.3,0.1,0.5,0.1,0.7,0.1c1,0,1.2-0.6,1.5-1.4l0.4-1L79.6,66.5z"/>
	<path class="st0" d="M96.3,70.9c0,2.5-1.5,4.6-4.1,4.6c-2.7,0-4.1-2.1-4.1-4.6s1.5-4.6,4.1-4.6C94.9,66.3,96.3,68.4,96.3,70.9z
		 M89.1,70.9c0,1.9,1,3.7,3.1,3.7s3.1-1.9,3.1-3.7c0-1.9-1-3.7-3.1-3.7S89.1,69.1,89.1,70.9z"/>
	<path class="st0" d="M105,75.3h-1v-1.6l0,0c-0.6,1.2-1.7,1.8-3,1.8c-2.2,0-3.1-1.3-3.1-3.3v-5.7H99v5.7c0.1,1.6,0.6,2.4,2.3,2.4
		c1.8,0,2.6-1.7,2.6-3.5v-4.6h1.1V75.3z"/>
	<path class="st0" d="M107.1,66.5h1v2.1l0,0c0.5-1.4,1.7-2.2,3.3-2.2v1.1c-1.9-0.1-3.3,1.3-3.3,3.1v4.7H107L107.1,66.5L107.1,66.5z"
		/>
	<path class="st0" d="M117.7,67.4h-1.5v-0.9h1.5v-0.8c0-1.5,0.4-2.6,2.1-2.6c0.3,0,0.6,0,0.9,0.1v0.9c-0.3-0.1-0.5-0.1-0.8-0.1
		c-1.2,0-1.2,0.7-1.2,1.7v0.8h1.7v0.9h-1.7v7.9h-1.1L117.7,67.4L117.7,67.4z M121.6,63.2h1.1v1.7h-1.1V63.2z M121.6,66.5h1.1v8.8
		h-1.1V66.5z"/>
	<path class="st0" d="M124.7,66.5h1v2.1l0,0c0.5-1.4,1.7-2.2,3.3-2.2v1.1c-1.9-0.1-3.3,1.3-3.3,3.1v4.7h-1.1L124.7,66.5L124.7,66.5z
		"/>
	<path class="st0" d="M135.3,69.1c-0.1-1.3-1.1-1.9-2.3-1.9c-1,0-2.1,0.4-2.1,1.5c0,1,1.1,1.3,1.8,1.5l1.4,0.3
		c1.2,0.2,2.5,0.9,2.5,2.4c0,1.9-1.9,2.6-3.5,2.6c-2,0-3.4-1-3.6-3.1h1.1c0.1,1.4,1.2,2.2,2.6,2.2c1,0,2.4-0.4,2.4-1.7
		c0-1-1-1.4-1.9-1.6l-1.4-0.3c-1.4-0.4-2.4-0.8-2.4-2.3c0-1.8,1.8-2.5,3.3-2.5c1.8,0,3.1,0.9,3.2,2.8L135.3,69.1L135.3,69.1z"/>
	<path class="st0" d="M139.9,66.5h1.8v0.9h-1.8v5.9c0,0.7,0.1,1.1,0.9,1.2c0.3,0,0.6,0,0.9-0.1v0.9c-0.3,0-0.6,0-1,0
		c-1.4,0-1.9-0.5-1.9-2v-6h-1.5v-0.9h1.5v-2.6h1.1V66.5z"/>
	<path class="st0" d="M148,63.2h1.1v5l0,0c0.5-1.3,1.7-1.9,3-1.9c2.7,0,3.9,2.2,3.9,4.6c0,2.5-1.3,4.6-3.9,4.6
		c-1.4,0-2.6-0.7-3.1-1.9l0,0v1.7h-1V63.2z M152.1,67.2c-2.3,0-3.1,1.9-3.1,3.7s0.8,3.7,3.1,3.7c2,0,2.9-1.9,2.9-3.7
		S154.2,67.2,152.1,67.2z"/>
	<path class="st0" d="M157.8,63.2h1.1v1.7h-1.1V63.2z M157.8,66.5h1.1v8.8h-1.1V66.5z"/>
	<path class="st0" d="M160.9,63.2h1.1v12.1h-1.1V63.2z"/>
	<path class="st0" d="M164,63.2h1.1v12.1H164V63.2z"/>
	<path class="st0" d="M167.8,75.3v-1.8h1.4v1.8H167.8z"/>
	<g>
		<path class="st0" d="M171.3,64.9l-0.1-0.1c-0.8-0.5-1.8-0.3-1.8-0.9c0-0.1,0.1-0.4,0.4-0.4c0.5,0,0.5,0.6,1.7,1.3v-0.2
			c0-1-0.3-1.1-0.3-1.7c0-0.5,0.4-0.5,0.4-0.5c0.3,0,0.4,0.3,0.4,0.5c0,0.3-0.3,0.9-0.3,1.5v0.3h0.1c0.8-0.4,1.1-1.3,1.5-1.3
			c0.1,0,0.4,0.1,0.4,0.4c0,0.8-0.7,0.3-2,1l0.1,0.1c1,0.6,1.9,0.2,1.9,0.9c0,0.3-0.2,0.4-0.4,0.4c-0.5,0-0.8-0.9-1.5-1.2h-0.1v0.1
			c0,1.2,0.3,1.3,0.3,1.7c0,0.2-0.2,0.5-0.5,0.5c-0.2,0-0.4-0.2-0.4-0.5c0-0.4,0.4-1,0.3-1.7v-0.1c-0.6,0.4-0.6,0.4-0.9,0.7
			c-0.4,0.4-0.5,0.5-0.7,0.5c-0.3,0-0.4-0.3-0.4-0.4C169.4,65.3,170.3,65.7,171.3,64.9z"/>
	</g>
</g>
</svg>
